[
  {
    "jobName": "Pruning",
    "staffs": [
      {
        "staffName": "Braco",
        "orchard": "Benji (V1394U)",
        "block": "UB13",
        "rate": 0.0,
        "availableRows": [
          {
            "rowNumber": 3,
            "trees": 0,
            "coWorkers": [],
            "totalTrees": 557
          },
          {
            "rowNumber": 4,
            "trees": 0,
            "coWorkers": [
              {
                "name": "Yi Wan",
                "trees": 250
              }
            ],
            "totalTrees": 556
          }
        ]
      },
      {
        "staffName": "Henry Pham",
        "orchard": "Benji (V1394U)",
        "block": "UB13",
        "rate": 0.0,
        "availableRows": [
          {
            "rowNumber": 3,
            "trees": 0,
            "coWorkers": [],
            "totalTrees": 557
          },
          {
            "rowNumber": 4,
            "trees": 0,
            "coWorkers": [
              {
                "name": "Yi Wan",
                "trees": 250
              }
            ],
            "totalTrees": 556
          },
          {
            "rowNumber": 5,
            "trees": 0,
            "coWorkers": [
              {
                "name": "Elizabeth Jargave",
                "trees": 100
              }
            ],
            "totalTrees": 270
          }
        ]
      }
    ]
  },
  {
    "jobName": "Thining",
    "staffs": [
      {
        "staffName": "Henry Darijan",
        "orchard": "Benji (V1394U)",
        "block": "UB14",
        "rate": 0.0,
        "availableRows": [
          {
            "rowNumber": 3,
            "trees": 0,
            "coWorkers": [],
            "totalTrees": 556
          },
          {
            "rowNumber": 4,
            "trees": 0,
            "coWorkers": [
              {
                "name": "Yi Wan",
                "trees": 250
              }
            ],
            "totalTrees": 556
          },
          {
            "rowNumber": 5,
            "trees": 0,
            "coWorkers": [
              {
                "name": "Elizabeth Jargave",
                "trees": 100
              }
            ],
            "totalTrees": 270
          }
        ]
      }
    ]
  }
]